{
  "_id": "Kz5NNyWo5Q3nAxdG",
  "name": "Blatantly Offworld",
  "type": "trait",
  "effects": [],
  "sort": 100000,
  "flags": {},
  "_stats": {
    "coreVersion": "12.328",
    "systemId": null,
    "systemVersion": null,
    "createdTime": null,
    "modifiedTime": null,
    "lastModifiedBy": null,
    "compendiumSource": null,
    "duplicateSource": null
  },
  "ownership": {
    "default": 2,
    "UZCr0JURJiaIINUF": 3
  },
  "system": {
    "temporary": false,
    "note": "Murder - Narime"
  },
  "img": "icons/svg/item-bag.svg",
  "folder": null,
  "_key": "!items!Kz5NNyWo5Q3nAxdG"
}
