{
  "_id": "mMim7AZ4bn7UlJW7",
  "name": "Bodkin",
  "type": "asset",
  "effects": [],
  "sort": 0,
  "flags": {},
  "_stats": {
    "coreVersion": "12.328",
    "systemId": null,
    "systemVersion": null,
    "createdTime": null,
    "modifiedTime": null,
    "lastModifiedBy": null,
    "compendiumSource": null,
    "duplicateSource": null
  },
  "ownership": {
    "default": 0,
    "UZCr0JURJiaIINUF": 3
  },
  "system": {
    "temporary": false,
    "quality": 0,
    "actor": null,
    "description": "These tiny, well-crafted blades are used for personal defense and are commonly used by assassins. While not useful for cutting, they are exceptional for stabbing attacks. Several noted cutpurses use them as an aid in their crimes.",
    "usage": "The bodkin is easily concealed in a wrist sheath and easily disposed of before capture.",
    "keywords": "Concealable, Melee Weapon, Quiet",
    "note": ""
  },
  "img": "icons/svg/item-bag.svg",
  "folder": null,
  "_key": "!items!mMim7AZ4bn7UlJW7"
}
