{
  "_id": "i7EA0rQBdWEKMauz",
  "name": "Crysknife",
  "type": "asset",
  "effects": [],
  "sort": 0,
  "flags": {},
  "_stats": {
    "coreVersion": "12.328",
    "systemId": null,
    "systemVersion": null,
    "createdTime": null,
    "modifiedTime": null,
    "lastModifiedBy": null,
    "compendiumSource": null,
    "duplicateSource": null
  },
  "ownership": {
    "default": 0,
    "UZCr0JURJiaIINUF": 3
  },
  "system": {
    "temporary": false,
    "quality": 0,
    "actor": null,
    "description": "This sacred blade of the Fremen is crafted from the tooth of a dead sandworm. An average crysknife possesses a 0.2-meter curved milky-white double blade with a finger-ridged handle. Sometimes the tip of the blade is coated with a deadly, fast-acting poison.\n\nPart of the Fremen tradition surrounding the blade states that one can never be re-sheathed without first drawing blood. Additionally, outsiders are not allowed to view these blades, and if they do, the blade is cleansed through a long ritual or the outsider being put to death.\n\nCrysknives come primarily in two types: unfixed and fixed. Unfixed blades must stay close to a person's electrical field, or they will disintegrate. Fixed blades are treated with a unique process that allows them to be stored.",
    "usage": "A crysknife is a status symbol for an outsider among Fremen to show that one is a friend. They are an effective weapon against shielded opponents.",
    "keywords": "Melee Weapon, Sacred",
    "note": ""
  },
  "img": "icons/svg/item-bag.svg",
  "folder": null,
  "_key": "!items!i7EA0rQBdWEKMauz"
}
