{
  "_id": "0efByVLAavf0z4QJ",
  "name": "Maker Hooks",
  "type": "asset",
  "effects": [],
  "sort": 0,
  "flags": {},
  "_stats": {
    "coreVersion": "12.328",
    "systemId": null,
    "systemVersion": null,
    "createdTime": null,
    "modifiedTime": null,
    "lastModifiedBy": null,
    "compendiumSource": null,
    "duplicateSource": null
  },
  "ownership": {
    "default": 0,
    "UZCr0JURJiaIINUF": 3
  },
  "system": {
    "temporary": false,
    "quality": 0,
    "actor": null,
    "description": "",
    "usage": "",
    "keywords": "",
    "note": ""
  },
  "img": "icons/svg/item-bag.svg",
  "folder": null,
  "_key": "!items!0efByVLAavf0z4QJ"
}
