{
  "_id": "tGNexS1m81bCiPBv",
  "name": "Pulse-Sword",
  "type": "asset",
  "effects": [],
  "sort": 0,
  "flags": {},
  "_stats": {
    "coreVersion": "12.328",
    "systemId": null,
    "systemVersion": null,
    "createdTime": null,
    "modifiedTime": null,
    "lastModifiedBy": null,
    "compendiumSource": null,
    "duplicateSource": null
  },
  "ownership": {
    "default": 0,
    "UZCr0JURJiaIINUF": 3
  },
  "system": {
    "temporary": false,
    "quality": 0,
    "actor": null,
    "description": "The pulse-sword is a melding of two different worlds: the medieval and the technologically advanced. These blades use vibrations to amplify the attacking power of the sword wielder, but as a result are rarely used on Arrakis due to the possibility of attracting sandworms.",
    "usage": "The vibration effect of the blade disrupts thinking machine gelcircuitry.",
    "keywords": "Disruptive, Melee Weapon, Vibro-blade",
    "note": ""
  },
  "img": "icons/svg/item-bag.svg",
  "folder": null,
  "_key": "!items!tGNexS1m81bCiPBv"
}
