{
  "_id": "ItCxMEuT9zvGBnZt",
  "name": "Calculated Prediction",
  "type": "talent",
  "flags": {},
  "effects": [],
  "_stats": {
    "coreVersion": "12.328",
    "systemId": null,
    "systemVersion": null,
    "createdTime": null,
    "modifiedTime": null,
    "lastModifiedBy": null,
    "compendiumSource": null,
    "duplicateSource": null
  },
  "ownership": {
    "default": 0,
    "ivsru9grUntcRBn1": 3
  },
  "system": {
    "name": "",
    "description": "Using the facts and figures you have memorized and your ability to process information, you can attempt to predict the future. No such predictions are 100% perfect, as there may be variables you are unaware of that affect the future.",
    "rule": "You may spend a few minutes to meditate upon predicting the future. This requires an Understand test with a Difficulty of 4; if successful, you may ask the Gamemaster to state something that is likely to occur in the future.\nYou may ask for one additional prediction for every two points of Momentum you spend. The Gamemaster can make these predictions vague and they do not have to explain any context for the prediction or why that thing is likely to occur.",
    "faction": "Mentat",
    "skill": null,
    "forSkill": false,
    "drive": null,
    "forDrive": false,
    "note": ""
  },
  "img": "icons/svg/item-bag.svg",
  "folder": null,
  "sort": 0,
  "_key": "!items!ItCxMEuT9zvGBnZt"
}
