{
  "name": "Collaboration",
  "type": "talent",
  "flags": {},
  "effects": [],
  "_id": "C7C1qdE9VDquF4DR",
  "_stats": {
    "coreVersion": "12.328",
    "systemId": null,
    "systemVersion": null,
    "createdTime": null,
    "modifiedTime": null,
    "lastModifiedBy": null,
    "compendiumSource": null,
    "duplicateSource": null
  },
  "ownership": {
    "default": 0,
    "ivsru9grUntcRBn1": 3
  },
  "system": {
    "name": "",
    "description": "You’ve coached your allies to capitalize on your expertise, and that effort has paid off.",
    "rule": "When you select this talent, choose a single skill with a rating of 6 or more. Whenever an ally attempts a test using that skill, and you can communicate with them, you may spend 2 points of Momentum to allow them to use your score for that skill, and one of your focuses (if applicable).",
    "faction": "",
    "skill": "",
    "forSkill": true,
    "drive": null,
    "forDrive": false,
    "note": null
  },
  "img": "icons/svg/item-bag.svg",
  "folder": null,
  "sort": 0,
  "_key": "!items!C7C1qdE9VDquF4DR"
}
