{
  "name": "Failed Navigator",
  "type": "talent",
  "flags": {},
  "effects": [],
  "_id": "Azvz3DWOWDBkPNXp",
  "_stats": {
    "coreVersion": "12.328",
    "systemId": null,
    "systemVersion": null,
    "createdTime": null,
    "modifiedTime": null,
    "lastModifiedBy": null,
    "compendiumSource": null,
    "duplicateSource": null
  },
  "ownership": {
    "default": 0,
    "ivsru9grUntcRBn1": 3
  },
  "system": {
    "name": "",
    "description": "You underwent trials to become a Guild Navigator, but you failed to meet the standards required… yet, for one brief moment, your consciousness became one with the universe. In times of stress, your mind sometimes repeats this, granting you a momentary insight of some kind.",
    "rule": "Whenever you spend a point of Determination, the gamemaster will grant you an additional insight. This may relate to your current activities, or it may be completely unrelated.",
    "faction": "Spacing Guild",
    "skill": null,
    "forSkill": false,
    "drive": null,
    "forDrive": false,
    "note": null
  },
  "img": "icons/svg/item-bag.svg",
  "folder": null,
  "sort": 0,
  "_key": "!items!Azvz3DWOWDBkPNXp"
}
