{
  "name": "Find Trouble",
  "type": "talent",
  "flags": {},
  "effects": [],
  "_id": "5JXWgRqqUyvqcotM",
  "_stats": {
    "coreVersion": "12.328",
    "systemId": null,
    "systemVersion": null,
    "createdTime": null,
    "modifiedTime": null,
    "lastModifiedBy": null,
    "compendiumSource": null,
    "duplicateSource": null
  },
  "ownership": {
    "default": 0,
    "ivsru9grUntcRBn1": 3
  },
  "system": {
    "name": "",
    "description": "You know where to find the criminal element wherever you go.",
    "rule": "Wherever you are, once per adventure, you can always contact the criminal underworld or black market (as long as there is one in that area). This doesn’t mean they will be well disposed toward you, just that you can find a contact.",
    "faction": "",
    "skill": null,
    "forSkill": false,
    "drive": null,
    "forDrive": false,
    "note": null
  },
  "img": "icons/svg/item-bag.svg",
  "folder": null,
  "sort": 0,
  "_key": "!items!5JXWgRqqUyvqcotM"
}
