{
  "name": "Hidden Motives",
  "type": "talent",
  "flags": {},
  "effects": [],
  "_id": "eBxXgfaRiYFSK2pI",
  "_stats": {
    "coreVersion": "12.328",
    "systemId": null,
    "systemVersion": null,
    "createdTime": null,
    "modifiedTime": null,
    "lastModifiedBy": null,
    "compendiumSource": null,
    "duplicateSource": null
  },
  "ownership": {
    "default": 0,
    "ivsru9grUntcRBn1": 3
  },
  "system": {
    "name": "",
    "description": "You are a master at concealing your intentions and motivations. Few truly know what drives you, even if they think they understand you.",
    "rule": "When an opponent fails an Understand or Communicate test against you, you may immediately create a trait which reflects a mistaken belief they have about you.",
    "faction": "",
    "skill": null,
    "forSkill": false,
    "drive": null,
    "forDrive": false,
    "note": null
  },
  "img": "icons/svg/item-bag.svg",
  "folder": null,
  "sort": 0,
  "_key": "!items!eBxXgfaRiYFSK2pI"
}
