{
  "name": "Improvised Weapon",
  "type": "talent",
  "flags": {},
  "effects": [],
  "_id": "eG3Pqoqc460ihZhb",
  "_stats": {
    "coreVersion": "12.328",
    "systemId": null,
    "systemVersion": null,
    "createdTime": null,
    "modifiedTime": null,
    "lastModifiedBy": null,
    "compendiumSource": null,
    "duplicateSource": null
  },
  "ownership": {
    "default": 0,
    "ivsru9grUntcRBn1": 3
  },
  "system": {
    "name": "",
    "description": "You are able to turn the most innocuous items into deadly weapons at a moment’s notice.",
    "rule": "Once per scene you may create a Quality 0 asset (at no cost) that you can use in a personal or skirmish conflict. It might be a rock, broken bottle, or shard of glass, but it is enough to function as a weapon. The asset is removed at the end of any conflict it is used for, as it will be too badly damaged to use again.",
    "faction": "",
    "skill": null,
    "forSkill": false,
    "drive": null,
    "forDrive": false,
    "note": null
  },
  "img": "icons/svg/item-bag.svg",
  "folder": null,
  "sort": 0,
  "_key": "!items!eG3Pqoqc460ihZhb"
}
