{
  "name": "Make Haste",
  "type": "talent",
  "flags": {},
  "effects": [],
  "_id": "GsLSvO5Zq8C6v6Q6",
  "_stats": {
    "coreVersion": "12.328",
    "systemId": null,
    "systemVersion": null,
    "createdTime": null,
    "modifiedTime": null,
    "lastModifiedBy": null,
    "compendiumSource": null,
    "duplicateSource": null
  },
  "ownership": {
    "default": 0,
    "ivsru9grUntcRBn1": 3
  },
  "system": {
    "name": "",
    "description": "There is value in speed, even if there are consequences.",
    "rule": "When you attempt a Move test, you may choose to suffer one additional complication in exchange for scoring one automatic success on the test. During any conflict, you may add 1 to Threat to take the first action, regardless of who would otherwise act first.",
    "faction": "",
    "skill": null,
    "forSkill": false,
    "drive": null,
    "forDrive": false,
    "note": null
  },
  "img": "icons/svg/item-bag.svg",
  "folder": null,
  "sort": 0,
  "_key": "!items!GsLSvO5Zq8C6v6Q6"
}
