{
  "name": "Mentat Discipline",
  "type": "talent",
  "flags": {},
  "effects": [],
  "_id": "903YAiB0fxkjaQ7K",
  "_stats": {
    "coreVersion": "12.328",
    "systemId": null,
    "systemVersion": null,
    "createdTime": null,
    "modifiedTime": null,
    "lastModifiedBy": null,
    "compendiumSource": null,
    "duplicateSource": null
  },
  "ownership": {
    "default": 0,
    "ivsru9grUntcRBn1": 3
  },
  "system": {
    "name": "",
    "description": "Intense mental conditioning and extensive training have developed your intellect into a potent and valuable thing. You can retain and process vast amounts of information at extraordinary speeds.",
    "rule": "You have almost perfect recall, for even the most complex data. When making an Understand test that applies to recalling data, one of the D20s in your pool may be considered to have rolled a 1 instead of rolling it.",
    "faction": "Mentat",
    "skill": null,
    "forSkill": false,
    "drive": null,
    "forDrive": false,
    "note": null
  },
  "img": "icons/svg/item-bag.svg",
  "folder": null,
  "sort": 0,
  "_key": "!items!903YAiB0fxkjaQ7K"
}
