{
  "name": "Rapid Recovery",
  "type": "talent",
  "flags": {},
  "effects": [],
  "_id": "mJ55nKrQpW2NC6P5",
  "_stats": {
    "coreVersion": "12.328",
    "systemId": null,
    "systemVersion": null,
    "createdTime": null,
    "modifiedTime": null,
    "lastModifiedBy": null,
    "compendiumSource": null,
    "duplicateSource": null
  },
  "ownership": {
    "default": 0,
    "ivsru9grUntcRBn1": 3
  },
  "system": {
    "name": "",
    "description": "You return to fighting form quickly after being injured, even when it may be risky to return to the fray.",
    "rule": "Once per scene, at the start of your turn, you may add +2 to Threat to remove a complication which represents an injury. In addition, you may pay to Resist Defeat one additional time during a conflict.",
    "faction": "",
    "skill": null,
    "forSkill": false,
    "drive": null,
    "forDrive": false,
    "note": null
  },
  "img": "icons/svg/item-bag.svg",
  "folder": null,
  "sort": 0,
  "_key": "!items!mJ55nKrQpW2NC6P5"
}
