{
  "name": "Rapid Maneuver",
  "type": "talent",
  "flags": {},
  "effects": [],
  "_id": "Xz3iDAlxQmrUoMDd",
  "_stats": {
    "coreVersion": "12.328",
    "systemId": null,
    "systemVersion": null,
    "createdTime": null,
    "modifiedTime": null,
    "lastModifiedBy": null,
    "compendiumSource": null,
    "duplicateSource": null
  },
  "ownership": {
    "default": 0,
    "ivsru9grUntcRBn1": 3
  },
  "system": {
    "name": "",
    "description": "You’re fast, able to cross ground, find the shortest route, and bring your tools to bear quicker than most.",
    "rule": "When attempting a skill test to reach a destination quickly when moving on foot or in a vehicle, reduce the Difficulty by 1. In a conflict, when moving an asset, you may move the asset an additional zone for 1 point of Momentum, rather than 2.",
    "faction": "",
    "skill": null,
    "forSkill": false,
    "drive": null,
    "forDrive": false,
    "note": null
  },
  "img": "icons/svg/item-bag.svg",
  "folder": null,
  "sort": 0,
  "_key": "!items!Xz3iDAlxQmrUoMDd"
}
