{
  "name": "The Slow Blade",
  "type": "talent",
  "flags": {},
  "effects": [],
  "_id": "rHBPD9e1dGLd3YTT",
  "_stats": {
    "coreVersion": "12.328",
    "systemId": null,
    "systemVersion": null,
    "createdTime": null,
    "modifiedTime": null,
    "lastModifiedBy": null,
    "compendiumSource": null,
    "duplicateSource": null
  },
  "ownership": {
    "default": 0,
    "ivsru9grUntcRBn1": 3
  },
  "system": {
    "name": "",
    "description": "The slow blade pierces the shield. You’re well-versed in the subtle ways of avoiding an opponent’s defenses.",
    "rule": "When you make an attack during a duel or a skirmish using a melee weapon, and you buy one or more dice by spending Momentum, you may choose one of the enemy’s assets in the same zone as your attack; you can ignore that asset during your attack.",
    "faction": "",
    "skill": null,
    "forSkill": false,
    "drive": null,
    "forDrive": false,
    "note": null
  },
  "img": "icons/svg/item-bag.svg",
  "folder": null,
  "sort": 0,
  "_key": "!items!rHBPD9e1dGLd3YTT"
}
