{
  "name": "The Reason I Fight",
  "type": "talent",
  "flags": {},
  "effects": [],
  "_id": "OADZWRvbbjRcYSKO",
  "_stats": {
    "coreVersion": "12.328",
    "systemId": null,
    "systemVersion": null,
    "createdTime": null,
    "modifiedTime": null,
    "lastModifiedBy": null,
    "compendiumSource": null,
    "duplicateSource": null
  },
  "ownership": {
    "default": 0,
    "ivsru9grUntcRBn1": 3
  },
  "system": {
    "name": "",
    "description": "Skill is not the only factor in determining victory; those who want it more, and those who are driven by a greater sense of purpose, may triumph when they should have failed.",
    "rule": "When you select this talent, choose a single drive rated 6 or higher. When you attempt a Battle test using the chosen drive, and the drive’s statement aligns with the action being attempted, you may re-roll 1d20.",
    "faction": "",
    "skill": null,
    "forSkill": false,
    "drive": "",
    "forDrive": true,
    "note": null
  },
  "img": "icons/svg/item-bag.svg",
  "folder": null,
  "sort": 0,
  "_key": "!items!OADZWRvbbjRcYSKO"
}
